…
You can also group by multiple columns:


```r
surveys %>%
  group_by(sex, species_id) %>%
  summarize(mean_weight = mean(weight, na.rm = TRUE))
```

```
## # A tibble: 92 x 3
## # Groups:   sex [?]
##       sex species_id mean_weight
##    <fctr>     <fctr>       <dbl>
##  1                AB         NaN
##  2                AH         NaN
##  3                AS         NaN
##  4                BA         NaN
##  5                CB         NaN
##  6                CM         NaN
##  7                CQ         NaN
##  8                CS         NaN
##  9                CT         NaN
## 10                CU         NaN
## # ... with 82 more rows
```
…
```r
surveys %>%
  filter(!is.na(weight)) %>%
  group_by(sex, species_id) %>%
  summarize(mean_weight = mean(weight))
```

```
## # A tibble: 64 x 3
## # Groups:   sex [?]
##       sex species_id mean_weight
##    <fctr>     <fctr>       <dbl>
##  1                DM    38.28571
##  2                DO    50.66667
##  3                DS   120.00000
##  4                NL   167.68750
##  5                OL    29.00000
##  6                OT    21.20000
##  7                PB    30.60000
##  8                PE    17.66667
##  9                PF     6.00000
## 10                PI    18.00000
## # ... with 54 more rows
```
…
```r
surveys %>%
  filter(!is.na(weight)) %>%
  group_by(sex, species_id) %>%
  summarize(mean_weight = mean(weight)) %>%
  print(n = 15)
```

```
## # A tibble: 64 x 3
## # Groups:   sex [?]
##       sex species_id mean_weight
##    <fctr>     <fctr>       <dbl>
##  1                DM    38.28571
##  2                DO    50.66667
##  3                DS   120.00000
##  4                NL   167.68750
##  5                OL    29.00000
##  6                OT    21.20000
##  7                PB    30.60000
##  8                PE    17.66667
##  9                PF     6.00000
## 10                PI    18.00000
## 11                PL    25.00000
## 12                PM    20.25000
## 13                PP    14.60000
## 14                RM    11.08333
## 15                SF    40.50000
## # ... with 49 more rows
```
Once the data are grouped, you can also summarize multiple variables at the same
time (and not necessarily on the same variable). For instance, we could add a
column indicating the minimum weight for each species for each sex:


```r
surveys %>%
  filter(!is.na(weight)) %>%
  group_by(sex, species_id) %>%
  summarize(mean_weight = mean(weight),
            min_weight = min(weight))
```

```
## # A tibble: 64 x 4
## # Groups:   sex [?]
##       sex species_id mean_weight min_weight
##    <fctr>     <fctr>       <dbl>      <dbl>
##  1                DM    38.28571         24
##  2                DO    50.66667         44
##  3                DS   120.00000         78
##  4                NL   167.68750         83
##  5                OL    29.00000         21
##  6                OT    21.20000         18
##  7                PB    30.60000         20
##  8                PE    17.66667         17
##  9                PF     6.00000          4
## 10                PI    18.00000         18
## # ... with 54 more rows
```
…
```r
## Answer 2
surveys %>%
    filter(!is.na(hindfoot_length)) %>%
    group_by(species_id) %>%
    summarize(
        mean_hindfoot_length = mean(hindfoot_length),
        min_hindfoot_length = min(hindfoot_length),
        max_hindfoot_length = max(hindfoot_length)
    )
```

```
## # A tibble: 25 x 4
##    species_id mean_hindfoot_length min_hindfoot_length max_hindfoot_length
##        <fctr>                <dbl>               <dbl>               <dbl>
##  1         AH             33.00000                  31                  35
##  2         BA             13.00000                   6                  16
##  3         DM             35.98235                  16                  50
##  4         DO             35.60755                  26                  64
##  5         DS             49.94887                  39                  58
##  6         NL             32.29423                  21                  70
##  7         OL             20.53261                  12                  39
##  8         OT             20.26741                  13                  50
##  9         OX             19.12500                  13                  21
## 10         PB             26.11592                   2                  47
## # ... with 15 more rows
```

```r
## Answer 3
surveys %>%
    filter(!is.na(weight)) %>%
    group_by(year) %>%
    filter(weight == max(weight)) %>%
    select(year, genus, species, weight) %>%
    arrange(desc(year))
```

```
## # A tibble: 27 x 4
## # Groups:   year [26]
##     year   genus  species weight
##    <int>  <fctr>   <fctr>  <int>
##  1  2002 Neotoma albigula    248
##  2  2001 Neotoma albigula    280
##  3  2000 Neotoma albigula    265
##  4  1999 Neotoma albigula    227
##  5  1998 Neotoma albigula    238
##  6  1997 Neotoma albigula    231
##  7  1996 Neotoma albigula    185
##  8  1995 Neotoma albigula    171
##  9  1994 Neotoma albigula    226
## 10  1993 Neotoma albigula    233
## # ... with 17 more rows
```
…
